{
  "image": "gitlab-registry.cern.ch/cms-tracker-phase2-onlinesw/herd-app/alma9/herd-devel:v0.4.15",
  "workspaceMount": "source=${localWorkspaceFolder},target=/workspace/____________________/herd-dummy,type=bind,consistency=cached",
  "workspaceFolder": "/workspace/____________________/herd-dummy"
}
